<svg width="631" height="450" viewBox="0 0 631 450" fill="none" xmlns="http://www.w3.org/2000/svg">
<g clip-path="url(#clip0_1954_56352)">
<rect width="631" height="450" fill="#F7FFFE"/>
<g clip-path="url(#clip1_1954_56352)">
<path opacity="0.15" d="M544.5 314C552.508 314 559 307.508 559 299.5C559 291.492 552.508 285 544.5 285C536.492 285 530 291.492 530 299.5C530 307.508 536.492 314 544.5 314Z" fill="#00D2D9" fill-opacity="0.6"/>
<path opacity="0.75" d="M596.469 189.77C605.305 189.77 612.469 182.607 612.469 173.77C612.469 164.933 605.305 157.77 596.469 157.77C587.632 157.77 580.469 164.933 580.469 173.77C580.469 182.607 587.632 189.77 596.469 189.77Z" fill="#00D2D9" fill-opacity="0.6"/>
<path opacity="0.15" d="M512 180C520.284 180 527 173.284 527 165C527 156.716 520.284 150 512 150C503.716 150 497 156.716 497 165C497 173.284 503.716 180 512 180Z" fill="#0099FF" fill-opacity="0.6"/>
<path opacity="0.6" d="M628.592 125.447C636.6 125.447 643.092 118.955 643.092 110.947C643.092 102.939 636.6 96.447 628.592 96.447C620.584 96.447 614.092 102.939 614.092 110.947C614.092 118.955 620.584 125.447 628.592 125.447Z" fill="#0099FF" fill-opacity="0.6"/>
<path opacity="0.75" d="M624.527 344.013C634.192 344.013 642.027 336.178 642.027 326.513C642.027 316.848 634.192 309.013 624.527 309.013C614.862 309.013 607.027 316.848 607.027 326.513C607.027 336.178 614.862 344.013 624.527 344.013Z" fill="#0099FF" fill-opacity="0.6"/>
<path opacity="0.25" d="M630.664 226.048C633.978 226.048 636.664 223.362 636.664 220.048C636.664 216.734 633.978 214.048 630.664 214.048C627.35 214.048 624.664 216.734 624.664 220.048C624.664 223.362 627.35 226.048 630.664 226.048Z" fill="#00D2D9" fill-opacity="0.6"/>
<path opacity="0.25" d="M567.493 345.536C570.807 345.536 573.493 342.85 573.493 339.536C573.493 336.223 570.807 333.536 567.493 333.536C564.179 333.536 561.493 336.223 561.493 339.536C561.493 342.85 564.179 345.536 567.493 345.536Z" fill="#00D2D9" fill-opacity="0.6"/>
<path opacity="0.25" d="M594 269C603.941 269 612 260.941 612 251C612 241.059 603.941 233 594 233C584.059 233 576 241.059 576 251C576 260.941 584.059 269 594 269Z" fill="#0099FF" fill-opacity="0.6"/>
<path opacity="0.25" d="M635.179 272.676C638.492 272.676 641.179 269.989 641.179 266.676C641.179 263.362 638.492 260.676 635.179 260.676C631.865 260.676 629.179 263.362 629.179 266.676C629.179 269.989 631.865 272.676 635.179 272.676Z" fill="#0099FF" fill-opacity="0.6"/>
<path opacity="0.15" d="M590.5 213C599.613 213 607 205.613 607 196.5C607 187.387 599.613 180 590.5 180C581.387 180 574 187.387 574 196.5C574 205.613 581.387 213 590.5 213Z" fill="#00D2D9" fill-opacity="0.6"/>
<path opacity="0.15" d="M561 285C565.418 285 569 281.418 569 277C569 272.582 565.418 269 561 269C556.582 269 553 272.582 553 277C553 281.418 556.582 285 561 285Z" fill="#00D2D9" fill-opacity="0.6"/>
<path opacity="0.15" d="M501.5 190C507.299 190 512 185.523 512 180C512 174.477 507.299 170 501.5 170C495.701 170 491 174.477 491 180C491 185.523 495.701 190 501.5 190Z" fill="#00D2D9" fill-opacity="0.6"/>
<path opacity="0.25" d="M591.63 226.496C594.944 226.496 597.63 223.81 597.63 220.496C597.63 217.182 594.944 214.496 591.63 214.496C588.316 214.496 585.63 217.182 585.63 220.496C585.63 223.81 588.316 226.496 591.63 226.496Z" fill="#00D2D9" fill-opacity="0.6"/>
<path opacity="0.25" d="M528.5 286C538.165 286 546 278.165 546 268.5C546 258.835 538.165 251 528.5 251C518.835 251 511 258.835 511 268.5C511 278.165 518.835 286 528.5 286Z" fill="#0099FF" fill-opacity="0.6"/>
<path opacity="0.25" d="M621.954 164.678C625.268 164.678 627.954 161.992 627.954 158.678C627.954 155.364 625.268 152.678 621.954 152.678C618.64 152.678 615.954 155.364 615.954 158.678C615.954 161.992 618.64 164.678 621.954 164.678Z" fill="#0099FF" fill-opacity="0.6"/>
<path opacity="0.15" d="M523.5 226C528.747 226 533 221.747 533 216.5C533 211.253 528.747 207 523.5 207C518.253 207 514 211.253 514 216.5C514 221.747 518.253 226 523.5 226Z" fill="#00D2D9" fill-opacity="0.6"/>
<path opacity="0.15" d="M556 150C566.493 150 575 141.493 575 131C575 120.507 566.493 112 556 112C545.507 112 537 120.507 537 131C537 141.493 545.507 150 556 150Z" fill="#0099FF" fill-opacity="0.6"/>
<path opacity="0.15" d="M544.5 188C550.851 188 556 182.851 556 176.5C556 170.149 550.851 165 544.5 165C538.149 165 533 170.149 533 176.5C533 182.851 538.149 188 544.5 188Z" fill="#0099FF" fill-opacity="0.6"/>
<path opacity="0.15" d="M431.5 309C433.985 309 436 306.985 436 304.5C436 302.015 433.985 300 431.5 300C429.015 300 427 302.015 427 304.5C427 306.985 429.015 309 431.5 309Z" fill="#0099FF" fill-opacity="0.6"/>
<path opacity="0.25" d="M478.5 332C483.194 332 487 328.194 487 323.5C487 318.806 483.194 315 478.5 315C473.806 315 470 318.806 470 323.5C470 328.194 473.806 332 478.5 332Z" fill="#00D2D9" fill-opacity="0.6"/>
<path opacity="0.25" d="M485 298C488.314 298 491 295.314 491 292C491 288.686 488.314 286 485 286C481.686 286 479 288.686 479 292C479 295.314 481.686 298 485 298Z" fill="#0099FF" fill-opacity="0.6"/>
</g>
</g>
<defs>
<clipPath id="clip0_1954_56352">
<rect width="631" height="450" fill="white"/>
</clipPath>
<clipPath id="clip1_1954_56352">
<rect width="216" height="268" fill="white" transform="translate(427 85)"/>
</clipPath>
</defs>
</svg>
